<?xml version="1.0" encoding="utf-8"?>
<!-- Generator: Adobe Illustrator 21.1.0, SVG Export Plug-In . SVG Version: 6.00 Build 0)  -->
<svg version="1.1" id="Calque_1" xmlns="http://www.w3.org/2000/svg" xmlns:xlink="http://www.w3.org/1999/xlink" x="0px" y="0px"
	 viewBox="0 0 13.7 18.3" enable-background="new 0 0 13.7 18.3" xml:space="preserve">
<g>
	<path fill="#FFCC80" d="M6.8,0.7c-0.3,0-0.6-0.2-0.8-0.4L0.2,8.5v0h0C0.6,8.5,1,8.8,1,9.1l5.8-8.2h0l3,4.3l2.8,4
		c0.1-0.3,0.4-0.5,0.8-0.5L7.6,0.2C7.5,0.5,7.2,0.7,6.8,0.7z"/>
	<path fill="#FFCC80" d="M6.8,17.6c-0.3,0-0.6,0.2-0.8,0.4L0.2,9.8v0h0C0.6,9.8,1,9.5,1,9.2l5.8,8.2h0l3-4.3l2.8-4
		c0.1,0.3,0.4,0.5,0.8,0.5l-5.9,8.3C7.5,17.8,7.2,17.6,6.8,17.6z"/>
</g>
</svg>
